<?xml version="1.0" encoding="UTF-8" standalone="no"?>
<!-- Created with Inkscape (http://www.inkscape.org/) -->

<svg
   width="512"
   height="512"
   viewBox="0 0 512.00001 512.00001"
   id="svg2"
   version="1.1"
   inkscape:version="1.1.2 (0a00cf5339, 2022-02-04)"
   sodipodi:docname="baby.svg"
   inkscape:export-filename="../Resources/Textures/Baby.png"
   inkscape:export-xdpi="90"
   inkscape:export-ydpi="90"
   xmlns:inkscape="http://www.inkscape.org/namespaces/inkscape"
   xmlns:sodipodi="http://sodipodi.sourceforge.net/DTD/sodipodi-0.dtd"
   xmlns:xlink="http://www.w3.org/1999/xlink"
   xmlns="http://www.w3.org/2000/svg"
   xmlns:svg="http://www.w3.org/2000/svg"
   xmlns:rdf="http://www.w3.org/1999/02/22-rdf-syntax-ns#"
   xmlns:cc="http://creativecommons.org/ns#"
   xmlns:dc="http://purl.org/dc/elements/1.1/">
  <defs
     id="defs4">
    <linearGradient
       inkscape:collect="always"
       id="linearGradient4163">
      <stop
         style="stop-color:#000000;stop-opacity:1;"
         offset="0"
         id="stop4165" />
      <stop
         style="stop-color:#000000;stop-opacity:0.64220184"
         offset="1"
         id="stop4167" />
    </linearGradient>
    <radialGradient
       inkscape:collect="always"
       xlink:href="#linearGradient4163"
       id="radialGradient4169"
       cx="-576.9776"
       cy="265.21829"
       fx="-576.9776"
       fy="265.21829"
       r="228.40633"
       gradientTransform="matrix(0.40274729,0.09662013,-0.05755641,0.23991577,574.4676,731.16427)"
       gradientUnits="userSpaceOnUse" />
  </defs>
  <sodipodi:namedview
     id="base"
     pagecolor="#808080"
     bordercolor="#666666"
     borderopacity="1.0"
     inkscape:pageopacity="0"
     inkscape:pageshadow="2"
     inkscape:zoom="0.7"
     inkscape:cx="382.14286"
     inkscape:cy="245.71429"
     inkscape:document-units="px"
     inkscape:current-layer="layer1"
     showgrid="false"
     inkscape:snap-global="false"
     inkscape:window-width="1920"
     inkscape:window-height="1056"
     inkscape:window-x="0"
     inkscape:window-y="0"
     inkscape:window-maximized="1"
     units="px"
     inkscape:pagecheckerboard="0" />
  <metadata
     id="metadata7">
    <rdf:RDF>
      <cc:Work
         rdf:about="">
        <dc:format>image/svg+xml</dc:format>
        <dc:type
           rdf:resource="http://purl.org/dc/dcmitype/StillImage" />
      </cc:Work>
    </rdf:RDF>
  </metadata>
  <g
     inkscape:label="Layer 1"
     inkscape:groupmode="layer"
     id="layer1"
     transform="translate(0,-540.36216)">
    <path
       style="color:#000000;clip-rule:nonzero;display:inline;overflow:visible;visibility:visible;opacity:1;isolation:auto;mix-blend-mode:normal;color-interpolation:sRGB;color-interpolation-filters:linearRGB;solid-color:#000000;solid-opacity:1;fill:#fda67b;fill-opacity:1;fill-rule:nonzero;stroke:#3a2721;stroke-width:9.526021;stroke-linecap:butt;stroke-linejoin:miter;stroke-miterlimit:10;stroke-dasharray:none;stroke-dashoffset:0;stroke-opacity:1;marker:none;color-rendering:auto;image-rendering:auto;shape-rendering:auto;text-rendering:auto;enable-background:accumulate"
       d="m 444.06532,669.81836 c 14.68172,-10.47256 29.3307,-1.78626 28.4356,24.77154 -0.89508,26.5578 -10.99652,43.30114 -28.6719,33.28034"
       id="path4196"
       inkscape:connector-curvature="0" />
    <path
       style="color:#000000;clip-rule:nonzero;display:inline;overflow:visible;visibility:visible;opacity:1;isolation:auto;mix-blend-mode:normal;color-interpolation:sRGB;color-interpolation-filters:linearRGB;solid-color:#000000;solid-opacity:1;fill:#fda67b;fill-opacity:1;fill-rule:nonzero;stroke:#3a2721;stroke-width:9.526021;stroke-linecap:round;stroke-linejoin:miter;stroke-miterlimit:10;stroke-dasharray:none;stroke-dashoffset:0;stroke-opacity:1;marker:none;color-rendering:auto;image-rendering:auto;shape-rendering:auto;text-rendering:auto;enable-background:accumulate"
       d="m 189.81395,623.52806 c 27.27433,-2.14189 133.94342,24.72785 175.18514,59.22581 41.24171,34.49798 73.11791,80.8214 71.37223,98.80001 -1.74567,17.9786 -9.91607,44.36848 -18.57568,36.08927 -8.65959,-8.27921 -29.34648,-33.07035 -41.2417,-34.49796 -11.89522,-1.4276 -39.16957,0.71428 -42.97157,11.79479 -3.802,11.08048 -92.44599,-19.33552 -106.42078,-25.01526 -13.97478,-5.67975 -54.09113,-17.67538 -53.20666,-27.98768 0.88446,-10.31228 -16.1632,-27.66218 -11.29814,-39.26256"
       id="path4156"
       inkscape:connector-curvature="0"
       sodipodi:nodetypes="csssssssc"
       inkscape:transform-center-x="-35.674469"
       inkscape:transform-center-y="-45.133924" />
    <path
       style="color:#000000;clip-rule:nonzero;display:inline;overflow:visible;visibility:visible;opacity:1;isolation:auto;mix-blend-mode:normal;color-interpolation:sRGB;color-interpolation-filters:linearRGB;solid-color:#000000;solid-opacity:1;fill:#eaeaea;fill-opacity:1;fill-rule:nonzero;stroke:#3d3b14;stroke-width:9.526021;stroke-linecap:butt;stroke-linejoin:miter;stroke-miterlimit:10;stroke-dasharray:none;stroke-dashoffset:0;stroke-opacity:1;marker:none;color-rendering:auto;image-rendering:auto;shape-rendering:auto;text-rendering:auto;enable-background:accumulate"
       d="m 145.44687,729.62319 c 39.67429,-2.88544 229.97746,67.21922 245.14939,125.93113 15.17192,58.7119 -40.25044,99.62754 -59.12725,99.40146 -18.8768,-0.22609 -50.51851,-5.99944 -65.22327,-7.90271 -23.36844,-3.02464 -30.91757,14.09533 -53.11479,6.18867 C 190.93373,945.33506 98.694974,913.74121 94.684402,833.6129 90.355732,747.12967 127.14362,730.95434 145.44687,729.62319 Z"
       id="path4136"
       inkscape:connector-curvature="0"
       sodipodi:nodetypes="sssssss" />
    <path
       style="color:#000000;clip-rule:nonzero;display:inline;overflow:visible;visibility:visible;opacity:1;isolation:auto;mix-blend-mode:normal;color-interpolation:sRGB;color-interpolation-filters:linearRGB;solid-color:#000000;solid-opacity:1;fill:#fda67b;fill-opacity:1;fill-rule:nonzero;stroke:#3a2721;stroke-width:9.526021;stroke-linecap:butt;stroke-linejoin:miter;stroke-miterlimit:10;stroke-dasharray:none;stroke-dashoffset:0;stroke-opacity:1;marker:none;color-rendering:auto;image-rendering:auto;shape-rendering:auto;text-rendering:auto;enable-background:accumulate"
       d="m 45.278441,824.34179 c -2.537626,10.57774 24.025693,72.02247 17.744401,73.09707 -6.281301,1.07461 -32.834737,47.19499 -23.395327,58.06454 9.439361,10.86955 55.235107,45.95 60.766455,30.0671 5.53139,-15.88308 44.45225,-63.33899 49.39802,-76.781 4.94579,-13.44204 -10.74404,-41.30013 -16.6678,-45.30275 -5.92377,-4.00264 8.69144,17.57412 16.69671,5.72658 8.00527,-11.84754 74.91566,-61.19371 -18.38128,-97.34391 -41.805536,0.29676 -83.623551,41.89463 -86.161179,52.47237 z"
       id="path4138"
       inkscape:connector-curvature="0"
       sodipodi:nodetypes="ssssssscs" />
    <path
       style="color:#000000;clip-rule:nonzero;display:inline;overflow:visible;visibility:visible;opacity:1;isolation:auto;mix-blend-mode:normal;color-interpolation:sRGB;color-interpolation-filters:linearRGB;solid-color:#000000;solid-opacity:1;fill:#fda67b;fill-opacity:1;fill-rule:nonzero;stroke:#3a2721;stroke-width:9.526021;stroke-linecap:butt;stroke-linejoin:miter;stroke-miterlimit:10;stroke-dasharray:none;stroke-dashoffset:0;stroke-opacity:1;marker:none;color-rendering:auto;image-rendering:auto;shape-rendering:auto;text-rendering:auto;enable-background:accumulate"
       d="m 369.86364,895.1427 c -45.02575,-7.27055 -102.05849,15.13166 -103.40332,24.69421 -1.34484,9.56254 -2.70768,23.32895 1.32028,30.01221 -22.4469,-4.88527 -24.04223,18.74891 -39.50408,22.75729 -14.23528,-25.13149 -42.5455,-11.32029 -45.3186,-6.54681 -2.77311,4.77345 -10.54272,26.05412 -17.37978,32.55202 -6.83705,6.49798 1.33879,27.19828 10.13536,35.26358 21.80108,19.9888 38.32236,-7.7292 43.37659,-13.6101 7.40867,-8.6206 101.05286,-1.3516 104.48475,-6.5699 30.6236,-46.56417 46.84995,-80.42517 46.2888,-118.5525 z"
       id="path4140"
       inkscape:connector-curvature="0"
       sodipodi:nodetypes="csccsssssc" />
    <path
       style="color:#000000;clip-rule:nonzero;display:inline;overflow:visible;visibility:visible;opacity:1;isolation:auto;mix-blend-mode:normal;color-interpolation:sRGB;color-interpolation-filters:linearRGB;solid-color:#000000;solid-opacity:1;fill:#ffffff;fill-opacity:1;fill-rule:nonzero;stroke:none;stroke-width:8.52099991;stroke-linecap:round;stroke-linejoin:round;stroke-miterlimit:10;stroke-dasharray:none;stroke-dashoffset:0;stroke-opacity:1;marker:none;color-rendering:auto;image-rendering:auto;shape-rendering:auto;text-rendering:auto;enable-background:accumulate"
       d="m 126.98336,764.29536 c 55.55839,21.21321 56.71876,17.28454 67.68022,43.43656 20.83684,49.71284 -58.42619,69.52684 18.28427,100.53736 18.70653,7.56219 90.83324,-35.37635 121.11678,-43.96881 42.44855,-12.04408 56.56855,-18.18275 47.47717,-29.29443 -9.09137,-11.11168 -156.57364,-77.78174 -240.4163,-90.91373 -83.842672,-13.13198 -14.14214,20.20305 -14.14214,20.20305 z"
       id="path4221"
       inkscape:connector-curvature="0"
       sodipodi:nodetypes="csssssc" />
    <path
       style="color:#000000;clip-rule:nonzero;display:inline;overflow:visible;visibility:visible;opacity:1;isolation:auto;mix-blend-mode:normal;color-interpolation:sRGB;color-interpolation-filters:linearRGB;solid-color:#000000;solid-opacity:1;fill:#fda67b;fill-opacity:1;fill-rule:nonzero;stroke:#3a2721;stroke-width:9.526021;stroke-linecap:round;stroke-linejoin:round;stroke-miterlimit:10;stroke-dasharray:none;stroke-dashoffset:0;stroke-opacity:1;marker:none;color-rendering:auto;image-rendering:auto;shape-rendering:auto;text-rendering:auto;enable-background:accumulate"
       d="m 205.14656,625.25048 c -22.16098,-7.60398 -109.935389,13.58793 -117.198072,27.01957 -7.262677,13.43165 -30.95173,59.26681 -21.570409,75.75548 9.38137,16.4887 18.374865,46.99866 33.932541,53.22154 15.55772,6.2229 71.17692,-29.54089 63.42502,-50.77835 -7.75189,-21.23745 -42.91815,-15.13 -30.23093,-22.75807 20.15204,-12.1162 21.71086,-36.89338 7.96853,-33.53632 -5.74773,1.4041 -24.06196,-2.06374 -24.06196,-2.06374 61.44681,-6.3401 22.47162,32.48071 22.47162,32.48071 l 25.57519,10.54479"
       id="path4142"
       inkscape:connector-curvature="0"
       sodipodi:nodetypes="cssssssccc"
       inkscape:transform-center-x="128.75699"
       inkscape:transform-center-y="-63.636938" />
    <path
       style="color:#000000;clip-rule:nonzero;display:inline;overflow:visible;visibility:visible;opacity:1;isolation:auto;mix-blend-mode:normal;color-interpolation:sRGB;color-interpolation-filters:linearRGB;solid-color:#000000;solid-opacity:1;fill:#fda67b;fill-opacity:1;fill-rule:nonzero;stroke:#3a2721;stroke-width:9.526021;stroke-linecap:butt;stroke-linejoin:miter;stroke-miterlimit:10;stroke-dasharray:none;stroke-dashoffset:0;stroke-opacity:1;marker:none;color-rendering:auto;image-rendering:auto;shape-rendering:auto;text-rendering:auto;enable-background:accumulate"
       d="m 437.41854,752.71984 c 11.8022,12.01146 -2.90914,60.04245 2.73992,79.67374 5.64908,19.63129 -5.61743,36.997 -15.97621,41.40445 -10.35878,4.40748 -47.06839,26.31272 -55.2546,24.38847 -8.18622,-1.92423 -46.1765,-14.95968 -45.26878,-27.91793 0.90771,-12.95823 8.22432,-62.64192 23.82854,-61.71095 15.60421,0.93096 30.00588,18.2576 39.39464,3.78618 9.38875,-14.47144 22.77388,-1.91683 22.77388,-1.91683 1.55637,-8.33742 -0.8124,-37.01051 27.76261,-57.70713 z"
       id="path4154"
       inkscape:connector-curvature="0"
       sodipodi:nodetypes="csssssscc"
       inkscape:transform-center-x="-119.4593"
       inkscape:transform-center-y="59.070291" />
    <path
       style="color:#000000;clip-rule:nonzero;display:inline;overflow:visible;visibility:visible;opacity:1;isolation:auto;mix-blend-mode:normal;color-interpolation:sRGB;color-interpolation-filters:linearRGB;solid-color:#000000;solid-opacity:1;fill:#fda67b;fill-opacity:1;fill-rule:nonzero;stroke:#3a2721;stroke-width:9.526021;stroke-linecap:butt;stroke-linejoin:miter;stroke-miterlimit:10;stroke-dasharray:none;stroke-dashoffset:0;stroke-opacity:1;marker:none;color-rendering:auto;image-rendering:auto;shape-rendering:auto;text-rendering:auto;enable-background:accumulate"
       d="m 440.0825,599.95343 c -85.58876,-55.74088 -138.43667,-49.36424 -144.71735,-43.83525 -6.28068,5.52898 -77.27907,59.11174 -88.44166,79.86333 -11.16257,20.7516 10.16729,61.9505 7.97967,109.3599 -2.18759,47.40938 120.65063,97.79657 159.69906,78.58276 39.04844,-19.2138 95.36942,-63.88903 86.36003,-86.28032 -9.00941,-22.39127 13.64889,-115.20316 -20.87975,-137.69042 z"
       id="path4144"
       inkscape:connector-curvature="0"
       sodipodi:nodetypes="sssssss"
       inkscape:transform-center-x="-69.360849"
       inkscape:transform-center-y="-76.080123" />
    <path
       style="color:#000000;clip-rule:nonzero;display:inline;overflow:visible;visibility:visible;opacity:1;isolation:auto;mix-blend-mode:normal;color-interpolation:sRGB;color-interpolation-filters:linearRGB;solid-color:#000000;solid-opacity:1;fill:url(#radialGradient4169);fill-opacity:1;fill-rule:nonzero;stroke:#e6866b;stroke-width:9.526021;stroke-linecap:butt;stroke-linejoin:miter;stroke-miterlimit:10;stroke-dasharray:none;stroke-dashoffset:0;stroke-opacity:1;marker:none;color-rendering:auto;image-rendering:auto;shape-rendering:auto;text-rendering:auto;enable-background:accumulate"
       d="m 253.23841,672.13051 c 70.13801,53.08012 160.00606,81.21097 160.00606,81.21097 0,0 -46.42359,58.70419 -110.86327,31.59901 -64.43967,-27.1052 -47.02947,-69.63268 -49.14279,-112.80998 z"
       id="path4146"
       inkscape:connector-curvature="0"
       inkscape:transform-center-x="-69.481663"
       inkscape:transform-center-y="-34.332555" />
    <path
       style="color:#000000;clip-rule:nonzero;display:inline;overflow:visible;visibility:visible;opacity:1;isolation:auto;mix-blend-mode:normal;color-interpolation:sRGB;color-interpolation-filters:linearRGB;solid-color:#000000;solid-opacity:1;fill:#ffffff;fill-opacity:1;fill-rule:nonzero;stroke:#000000;stroke-width:2.07087445;stroke-linecap:butt;stroke-linejoin:miter;stroke-miterlimit:10;stroke-dasharray:none;stroke-dashoffset:0;stroke-opacity:0.50196078;marker:none;color-rendering:auto;image-rendering:auto;shape-rendering:auto;text-rendering:auto;enable-background:accumulate"
       d="m 435.91515,648.65972 c 19.86703,7.77234 32.6935,76.90186 -1.74564,73.99834 -34.43913,-2.9035 -40.67804,-20.10459 -34.91415,-45.73936 5.60502,-24.92811 11.69924,-38.02399 36.65979,-28.25898 z"
       id="path4152"
       inkscape:connector-curvature="0"
       sodipodi:nodetypes="ssss"
       inkscape:transform-center-x="-163.05182"
       inkscape:transform-center-y="-82.361775" />
    <path
       style="color:#000000;clip-rule:nonzero;display:inline;overflow:visible;visibility:visible;opacity:1;isolation:auto;mix-blend-mode:normal;color-interpolation:sRGB;color-interpolation-filters:linearRGB;solid-color:#000000;solid-opacity:1;fill:none;fill-opacity:1;fill-rule:nonzero;stroke:#3a2721;stroke-width:9.526021;stroke-linecap:round;stroke-linejoin:round;stroke-miterlimit:10;stroke-dasharray:none;stroke-dashoffset:0;stroke-opacity:1;marker:none;color-rendering:auto;image-rendering:auto;shape-rendering:auto;text-rendering:auto;enable-background:accumulate"
       d="m 353.31223,696.4051 c 20.27385,9.35355 35.44909,11.98015 35.21238,0.20294 -0.3214,-15.98994 -13.33093,-12.31704 -16.43704,-40.35127"
       id="path4148"
       inkscape:connector-curvature="0"
       sodipodi:nodetypes="csc"
       inkscape:transform-center-x="-107.48352"
       inkscape:transform-center-y="-86.081277" />
    <path
       style="color:#000000;clip-rule:nonzero;display:inline;overflow:visible;visibility:visible;opacity:1;isolation:auto;mix-blend-mode:normal;color-interpolation:sRGB;color-interpolation-filters:linearRGB;solid-color:#000000;solid-opacity:1;fill:#ffffff;fill-opacity:1;fill-rule:nonzero;stroke:#000000;stroke-width:2.07087445;stroke-linecap:butt;stroke-linejoin:miter;stroke-miterlimit:10;stroke-dasharray:none;stroke-dashoffset:0;stroke-opacity:0.50196078;marker:none;color-rendering:auto;image-rendering:auto;shape-rendering:auto;text-rendering:auto;enable-background:accumulate"
       d="m 335.979,607.31908 c -23.03261,-22.64392 -106.08325,8.66252 -59.97347,49.89721 46.10978,41.23467 70.24399,-0.74626 69.49367,-9.45 -0.75035,-8.70375 4.8194,-26.3496 -9.5202,-40.44721 z"
       id="path4150"
       inkscape:connector-curvature="0"
       sodipodi:nodetypes="ssss"
       inkscape:transform-center-x="-40.687632"
       inkscape:transform-center-y="-129.05468" />
    <path
       style="color:#000000;clip-rule:nonzero;display:inline;overflow:visible;visibility:visible;opacity:1;isolation:auto;mix-blend-mode:normal;color-interpolation:sRGB;color-interpolation-filters:linearRGB;solid-color:#000000;solid-opacity:1;fill:#ffffff;fill-opacity:1;fill-rule:nonzero;stroke:none;stroke-width:5;stroke-linecap:round;stroke-linejoin:round;stroke-miterlimit:10;stroke-dasharray:none;stroke-dashoffset:0;stroke-opacity:1;marker:none;color-rendering:auto;image-rendering:auto;shape-rendering:auto;text-rendering:auto;enable-background:accumulate"
       d="m 308.70663,712.08001 c -1.09176,6.48155 -11.29051,12.37527 -8.90603,17.0218 2.60216,5.07077 24.14806,13.4157 26.07216,10.70122 1.7899,-2.52514 -1.16897,-12.78305 2.72826,-17.25685 -6.87441,-3.4328 -13.49407,-6.92327 -19.89439,-10.46617 z"
       id="path4171"
       inkscape:connector-curvature="0" />
    <ellipse
       style="color:#000000;clip-rule:nonzero;display:inline;overflow:visible;visibility:visible;opacity:1;isolation:auto;mix-blend-mode:normal;color-interpolation:sRGB;color-interpolation-filters:linearRGB;solid-color:#000000;solid-opacity:1;fill:#1370ff;fill-opacity:1;fill-rule:nonzero;stroke:none;stroke-width:8.52099991;stroke-linecap:round;stroke-linejoin:round;stroke-miterlimit:10;stroke-dasharray:none;stroke-dashoffset:0;stroke-opacity:1;marker:none;color-rendering:auto;image-rendering:auto;shape-rendering:auto;text-rendering:auto;enable-background:accumulate"
       id="path4217"
       cx="451.81525"
       cy="558.01544"
       rx="23.55644"
       ry="20.733234"
       transform="matrix(0.97240879,0.23328339,-0.23328339,0.97240879,0,0)" />
    <ellipse
       style="color:#000000;clip-rule:nonzero;display:inline;overflow:visible;visibility:visible;opacity:1;isolation:auto;mix-blend-mode:normal;color-interpolation:sRGB;color-interpolation-filters:linearRGB;solid-color:#000000;solid-opacity:1;fill:#000000;fill-opacity:1;fill-rule:nonzero;stroke:none;stroke-width:5;stroke-linecap:round;stroke-linejoin:round;stroke-miterlimit:10;stroke-dasharray:none;stroke-dashoffset:0;stroke-opacity:1;marker:none;color-rendering:auto;image-rendering:auto;shape-rendering:auto;text-rendering:auto;enable-background:accumulate"
       id="path4176"
       cx="452.50003"
       cy="558.66315"
       rx="9.0948792"
       ry="5.6209445"
       transform="matrix(0.97240879,0.23328339,-0.23328339,0.97240879,0,0)" />
    <ellipse
       cy="623.5863"
       cx="485.56412"
       id="circle4219"
       style="color:#000000;clip-rule:nonzero;display:inline;overflow:visible;visibility:visible;opacity:1;isolation:auto;mix-blend-mode:normal;color-interpolation:sRGB;color-interpolation-filters:linearRGB;solid-color:#000000;solid-opacity:1;fill:#229b28;fill-opacity:1;fill-rule:nonzero;stroke:none;stroke-width:8.52099991;stroke-linecap:round;stroke-linejoin:round;stroke-miterlimit:10;stroke-dasharray:none;stroke-dashoffset:0;stroke-opacity:1;marker:none;color-rendering:auto;image-rendering:auto;shape-rendering:auto;text-rendering:auto;enable-background:accumulate"
       rx="17.053658"
       ry="23.7666"
       transform="matrix(0.99077832,0.13549288,-0.0697764,0.99756266,0,0)" />
    <ellipse
       style="color:#000000;clip-rule:nonzero;display:inline;overflow:visible;visibility:visible;opacity:1;isolation:auto;mix-blend-mode:normal;color-interpolation:sRGB;color-interpolation-filters:linearRGB;solid-color:#000000;solid-opacity:1;fill:#000000;fill-opacity:1;fill-rule:nonzero;stroke:none;stroke-width:5;stroke-linecap:round;stroke-linejoin:round;stroke-miterlimit:10;stroke-dasharray:none;stroke-dashoffset:0;stroke-opacity:1;marker:none;color-rendering:auto;image-rendering:auto;shape-rendering:auto;text-rendering:auto;enable-background:accumulate"
       id="path4178"
       cx="586.79938"
       cy="567.26953"
       rx="5.1771855"
       ry="7.0255747"
       transform="matrix(0.97240879,0.23328339,-0.23328339,0.97240879,0,0)" />
    <path
       style="color:#000000;clip-rule:nonzero;display:inline;overflow:visible;visibility:visible;opacity:1;isolation:auto;mix-blend-mode:normal;color-interpolation:sRGB;color-interpolation-filters:linearRGB;solid-color:#000000;solid-opacity:1;fill:#fda67b;fill-opacity:1;fill-rule:nonzero;stroke:#3a2721;stroke-width:9.52590561;stroke-linecap:round;stroke-linejoin:round;stroke-miterlimit:10;stroke-dasharray:none;stroke-dashoffset:0;stroke-opacity:1;marker:none;color-rendering:auto;image-rendering:auto;shape-rendering:auto;text-rendering:auto;enable-background:accumulate"
       d="m 257.68292,598.33221 c 3.53135,-13.4518 -29.518,-32.94129 -45.82122,-11.90534 -16.30322,21.03595 -9.28139,50.10151 12.5588,52.90715"
       id="path4180"
       inkscape:connector-curvature="0" />
  </g>
</svg>
